Division,WeightClassKg,Place,Name,Team,BodyweightKg,Best3SquatKg,Best3BenchKg,Best3DeadliftKg,TotalKg,Equipment,Event,Sex,BirthDate
Boys,51.71,1,John Wyatt #1,Fort Worth Chisholm Trail,51.17,113.4,65.77,129.27,308.44,Single-ply,SBD,M,
Boys,51.71,2,Antonio Aldaco,Fort Worth Boswell,51.07,90.72,49.9,104.33,244.94,Single-ply,SBD,M,
Boys,59.87,1,Jesus Calderon,Saginaw,58.88,138.35,90.72,172.37,401.43,Single-ply,SBD,M,
Boys,59.87,2,Logan Claunch,Fort Worth Boswell,59.87,136.08,83.91,136.08,356.07,Single-ply,SBD,M,
Boys,59.87,3,Ethan Robertson,Fort Worth Boswell,59.87,108.86,81.65,136.08,326.59,Single-ply,SBD,M,
Boys,67.13,1,Djonny Mukuna,Saginaw,66.04,185.97,104.33,174.63,464.93,Single-ply,SBD,M,
Boys,67.13,2,Colten Wilson,Fort Worth Boswell,66.68,161.03,79.38,181.44,421.84,Single-ply,SBD,M,
Boys,67.13,3,Connor Neuse,Fort Worth Chisholm Trail,62.14,117.93,83.91,149.69,351.53,Single-ply,SBD,M,
Boys,67.13,4,Shane Panzarella,Fort Worth Boswell,60.51,117.93,83.91,136.08,337.93,Single-ply,SBD,M,
Boys,74.84,1,Jaden Fisher,Fort Worth Chisholm Trail,73.57,161.03,92.99,190.51,444.52,Single-ply,SBD,M,
Boys,74.84,2,Caleb Phillips,Fort Worth Boswell,72.39,145.15,92.99,158.76,396.89,Single-ply,SBD,M,
Boys,74.84,3,Reese Rushing,Fort Worth Boswell,74.84,149.69,88.45,154.22,392.36,Single-ply,SBD,M,
Boys,74.84,4,Joel Kaira,Fort Worth Chisholm Trail,74.57,136.08,88.45,154.22,378.75,Single-ply,SBD,M,
Boys,74.84,5,Evan O'Brien,Saginaw,72.67,111.13,68.04,122.47,301.64,Single-ply,SBD,M,
Boys,82.1,1,Jorge Alvarez,Fort Worth Boswell,81.65,174.63,113.4,192.78,480.81,Single-ply,SBD,M,
Boys,82.1,2,Gio Porras,Saginaw,80.47,136.08,95.25,158.76,390.09,Single-ply,SBD,M,
Boys,89.81,1,Shone Mombo,Fort Worth Chisholm Trail,88.27,210.92,131.54,217.72,560.19,Single-ply,SBD,M,
Boys,89.81,2,Brentton Blair,Fort Worth Boswell,88.54,174.63,127.01,181.44,483.08,Single-ply,SBD,M,
Boys,89.81,3,Parker Anderson,Fort Worth Boswell,83.46,181.44,102.06,195.04,478.54,Single-ply,SBD,M,
Boys,89.81,4,Ben Lam,Saginaw,83.82,156.49,97.52,181.44,435.45,Single-ply,SBD,M,
Boys,89.81,5,Israel Kaloso,Fort Worth Chisholm Trail,85.73,154.22,92.99,158.76,405.97,Single-ply,SBD,M,
Boys,99.79,1,Garrett Palmer,Fort Worth Boswell,97.98,199.58,127.01,181.44,508.02,Single-ply,SBD,M,
Boys,99.79,2,Jullien Abraham,Fort Worth Boswell,97.79,163.29,120.2,174.63,458.13,Single-ply,SBD,M,
Boys,99.79,3,Mason Munk,Fort Worth Boswell,99.61,161.03,108.86,170.1,439.98,Single-ply,SBD,M,
Boys,99.79,4,Cody Carrillo-Miranda,Saginaw,98.61,174.63,79.38,183.7,437.72,Single-ply,SBD,M,
Boys,99.79,5,Nicholas Marquez,Fort Worth Chisholm Trail,92.8,149.69,104.33,179.17,433.18,Single-ply,SBD,M,
Boys,99.79,6,Tj Richardson,Fort Worth Boswell,94.98,156.49,104.33,172.37,433.18,Single-ply,SBD,M,
Boys,99.79,7,Cooper Vaden,Fort Worth Boswell,95.8,154.22,108.86,167.83,430.91,Single-ply,SBD,M,
Boys,99.79,8,Alijah Brand,Fort Worth Boswell,98.16,154.22,99.79,176.9,430.91,Single-ply,SBD,M,
Boys,99.79,9,Eli Raya,Fort Worth Chisholm Trail,96.52,142.88,113.4,172.37,428.64,Single-ply,SBD,M,
Boys,99.79,10,Clayken Obispo,Fort Worth Boswell,98.88,176.9,99.79,151.95,428.64,Single-ply,SBD,M,
Boys,99.79,11,Ayden Benintendi,Fort Worth Boswell,99.52,154.22,104.33,167.83,426.38,Single-ply,SBD,M,
Boys,99.79,12,Joe Molina,Fort Worth Boswell,98.34,147.42,95.25,174.63,417.3,Single-ply,SBD,M,
Boys,109.77,1,Danny Simmons,Fort Worth Chisholm Trail,108.68,226.8,136.08,217.72,580.6,Single-ply,SBD,M,
Boys,109.77,2,Breydon Blackwell,Fort Worth Boswell,105.41,226.8,136.08,210.92,573.79,Single-ply,SBD,M,
Boys,109.77,3,David Alvarez,Fort Worth Boswell,109.59,217.72,127.01,210.92,555.65,Single-ply,SBD,M,
Boys,109.77,4,Gerardo De La O,Saginaw,105.05,190.51,113.4,208.65,512.56,Single-ply,SBD,M,
Boys,124.74,1,Steve Campbell,Fort Worth Boswell,112.76,181.44,122.47,158.76,462.66,Single-ply,SBD,M,
Boys,124.74,2,Chris Lister,Fort Worth Boswell,116.66,158.76,92.99,181.44,433.18,Single-ply,SBD,M,
Boys,124.74,3,Javier Garcia #12,Fort Worth Chisholm Trail,122.92,163.29,90.72,145.15,399.16,Single-ply,SBD,M,
Boys,124.74,DQ,Austin Lyon,Fort Worth Boswell,120.47,210.92,115.67,215.46,,Single-ply,SBD,M,
Boys,139.71,1,Hayden Norwich,Fort Worth Chisholm Trail,136.44,167.83,127.01,172.37,467.2,Single-ply,SBD,M,
Boys,139.71,2,Drew Garcia,Saginaw,135.17,165.56,92.99,197.31,455.86,Single-ply,SBD,M,
Boys,139.71,3,Ricardo Retana,Saginaw,128.37,151.95,111.13,183.7,446.79,Single-ply,SBD,M,
Boys,139.71+,1,Juan Garcia,Fort Worth Chisholm Trail,143.52,208.65,136.08,213.19,557.92,Single-ply,SBD,M,
Boys,139.71+,2,Colton Barber,Saginaw,142.7,208.65,136.08,188.24,532.97,Single-ply,SBD,M,
Boys,139.71+,3,Xzaviah Milton,Saginaw,146.33,192.78,120.2,161.03,474,Single-ply,SBD,M,
Boys,139.71+,4,Anthony Rodriguez,Saginaw,147.24,120.2,77.11,181.44,378.75,Single-ply,SBD,M,
