Division,WeightClassKg,Place,Name,Team,BodyweightKg,Best3SquatKg,Best3BenchKg,Best3DeadliftKg,TotalKg,Equipment,Event,Sex,BirthDate
Boys,51.71,1,Tyler Vu,Dickinson,50.44,124.74,61.23,117.93,303.91,Single-ply,SBD,M,
Boys,55.79,1,Kenneth White,Crosby,55.07,68.04,61.23,102.06,231.33,Single-ply,SBD,M,
Boys,59.87,1,Josyah Dekelaita,Dickinson,59.24,151.95,74.84,170.1,396.89,Single-ply,SBD,M,
Boys,59.87,2,Greyson Haney,Crosby,59.6,115.67,77.11,124.74,317.51,Single-ply,SBD,M,
Boys,67.13,1,Daniel García,Dickinson,67.13,201.85,117.93,219.99,539.77,Single-ply,SBD,M,
Boys,67.13,2,Jayden DeKelaita,Dickinson,66.59,190.51,104.33,197.31,492.15,Single-ply,SBD,M,
Boys,67.13,3,Jim Gomez,Dickinson,61.51,174.63,92.99,163.29,430.91,Single-ply,SBD,M,
Boys,67.13,4,Luke Smith,Crosby,66.04,158.76,102.06,165.56,426.38,Single-ply,SBD,M,
Boys,67.13,5,Haden Moidel,Crosby,67.04,102.06,83.91,165.56,351.53,Single-ply,SBD,M,
Boys,67.13,6,Michael Roberson,Baytown Goose Creek Memorial,62.96,92.99,61.23,145.15,299.37,Single-ply,SBD,M,
Boys,74.84,1,Keiron Lee,Huntsville,71.94,163.29,120.2,190.51,474,Single-ply,SBD,M,
Boys,74.84,2,David Jordan,Crosby,69.58,151.95,83.91,174.63,410.5,Single-ply,SBD,M,
Boys,74.84,3,Karson Larkin,Crosby,74.07,142.88,70.31,172.37,385.55,Single-ply,SBD,M,
Boys,74.84,4,Aidan Guiting,Crosby,71.21,111.13,83.91,151.95,347,Single-ply,SBD,M,
Boys,74.84,DQ,Sergio Hinojosa,Baytown Goose Creek Memorial,74.84,,,,,Single-ply,SBD,M,
Boys,82.1,1,Aden Arredondo,Dickinson,81.56,233.6,145.15,229.06,607.81,Single-ply,SBD,M,
Boys,82.1,2,Bladdin Hill,Dickinson,76.93,224.53,136.08,210.92,571.53,Single-ply,SBD,M,
Boys,82.1,3,Levi Fontenot,Crosby,79.56,197.31,97.52,210.92,505.76,Single-ply,SBD,M,
Boys,82.1,4,Tyler Larive,Crosby,81.96,151.95,102.06,170.1,424.11,Single-ply,SBD,M,
Boys,82.1,5,Rudy Rosas,Crosby,78.65,142.88,79.38,183.7,405.97,Single-ply,SBD,M,
Boys,82.1,6,Christian Sims,Crosby,80.29,149.69,81.65,165.56,396.89,Single-ply,SBD,M,
Boys,82.1,7,Taylor Vercher,Pasadena Rayburn,79.83,127.01,77.11,142.88,347,Single-ply,SBD,M,
Boys,82.1,8,Wesley Yarbrough,Crosby,81.51,142.88,83.91,102.06,328.85,Single-ply,SBD,M,
Boys,89.81,1,Jonathan Sagastizado,Dickinson,89.54,247.21,131.54,242.67,621.42,Single-ply,SBD,M,
Boys,89.81,2,Luis Castillo,Channelview,88,199.58,120.2,192.78,512.56,Single-ply,SBD,M,
Boys,89.81,3,Bryan Redd,Huntsville,87.09,170.1,127.01,185.97,483.08,Single-ply,SBD,M,
Boys,89.81,4,Ayden Jones,Crosby,86.27,147.42,92.99,197.31,437.72,Single-ply,SBD,M,
Boys,89.81,5,David Ards,Crosby,88.54,142.88,88.45,192.78,424.11,Single-ply,SBD,M,
Boys,89.81,6,Elijah Hudson,Baytown Goose Creek Memorial,87.27,124.74,83.91,127.01,335.66,Single-ply,SBD,M,
Boys,89.81,7,Julian Chapa,Baytown Goose Creek Memorial,83.73,120.2,65.77,131.54,317.51,Single-ply,SBD,M,
Boys,89.81,8,Benito Zuniga,Baytown Goose Creek Memorial,89.81,111.13,54.43,131.54,297.1,Single-ply,SBD,M,
Boys,99.79,1,Christian Hall,Huntsville,91.72,192.78,158.76,226.8,578.33,Single-ply,SBD,M,
Boys,99.79,2,Camron Richardson,Channelview,97.34,183.7,138.35,204.12,526.17,Single-ply,SBD,M,
Boys,99.79,3,Matthew Jordan,Crosby,95.98,170.1,102.06,215.46,487.61,Single-ply,SBD,M,
Boys,99.79,4,Cole Morton,Crosby,94.62,165.56,79.38,147.42,392.36,Single-ply,SBD,M,
Boys,99.79,5,Kleber Blanco,Pasadena Rayburn,98.79,161.03,83.91,145.15,390.09,Single-ply,SBD,M,
Boys,99.79,6,Cole Langley,Crosby,97.98,115.67,79.38,161.03,356.07,Single-ply,SBD,M,
Boys,109.77,1,Emilio Martinez,Dickinson,105.6,260.82,115.67,238.14,614.62,Single-ply,SBD,M,
Boys,109.77,2,Braden Wright,Crosby,109.04,242.67,133.81,235.87,612.35,Single-ply,SBD,M,
Boys,109.77,3,Micah Fisher,Huntsville,109.77,210.92,122.47,213.19,546.58,Single-ply,SBD,M,
Boys,109.77,4,DeShawn King,Pasadena Rayburn,109.77,217.72,113.4,197.31,528.44,Single-ply,SBD,M,
Boys,109.77,5,Levi Langley,Crosby,100.7,115.67,79.38,163.29,358.34,Single-ply,SBD,M,
Boys,124.74,1,Calvin Simpson,Huntsville,109.86,256.28,129.27,249.48,635.03,Single-ply,SBD,M,
Boys,124.74,2,Ja'Darius Smith,Huntsville,109.86,242.67,138.35,226.8,607.81,Single-ply,SBD,M,
Boys,124.74,3,Ryan Murrin,Crosby,121.97,226.8,111.13,195.04,532.97,Single-ply,SBD,M,
Boys,139.71,1,Dereiaz Wilson,Dickinson,125.01,247.21,163.29,226.8,637.3,Single-ply,SBD,M,
Boys,139.71,2,Christopher Smith,Huntsville,130.63,272.16,140.61,224.53,637.3,Single-ply,SBD,M,
Boys,139.71,3,Braxton Bowling,Crosby,129.64,247.21,124.74,170.1,542.04,Single-ply,SBD,M,
Boys,139.71,4,Adrian Arellano,Baytown Goose Creek Memorial,134.54,201.85,106.59,215.46,523.9,Single-ply,SBD,M,
Boys,139.71,5,Rickey Folmsbee,Crosby,131.36,161.03,74.84,161.03,396.89,Single-ply,SBD,M,
Boys,139.71+,1,Josiah Mason,Dickinson,149.69,297.1,204.12,238.14,739.36,Single-ply,SBD,M,
Boys,139.71+,2,Thomas Rose,Huntsville,141.88,272.16,151.95,226.8,650.91,Single-ply,SBD,M,
Boys,139.71+,3,Aden Boutte,Channelview,150.96,283.5,147.42,217.72,648.64,Single-ply,SBD,M,
Boys,139.71+,4,Bryson McGraw,Huntsville,182.34,174.63,81.65,174.63,430.91,Single-ply,SBD,M,
