Name,Sex,Event,Equipment,Division,BodyweightKg,WeightClassKg,Squat1Kg,Squat2Kg,Squat3Kg,Best3SquatKg,Bench1Kg,Bench2Kg,Bench3Kg,Best3BenchKg,Deadlift1Kg,Deadlift2Kg,Deadlift3Kg,Best3DeadliftKg,TotalKg,Place,State
Beth Southern,F,SBD,Raw,F-C-G,86.6,84+,95,100,-107.5,100,55,-60,-60,55,140,150,160,160,315,G,
Danielle Johnson #3,F,SBD,Raw,F-C-Open,84,84,140,147.5,-152.5,147.5,60,65,-67.5,65,170,177.5,182.5,182.5,395,1,YNE
Hannah Topp,F,SBD,Raw,F-C-Open,82.6,84,132.5,142.5,-152.5,142.5,57.5,65,-70,65,140,155,-160,155,362.5,2,YNE
Heather Murray,F,SBD,Raw,F-C-Open,71,72,95,102.5,110,110,57.5,62.5,65,65,125,140,150,150,325,4,YNE
Joanne Wainwright,F,SBD,Raw,F-C-Open,109,84+,130,135,-140,135,55,60,-62.5,60,160,170,-185,170,365,3,YNE
Kelly Broadbent,F,SBD,Raw,F-C-Open,69.6,72,97.5,-105,105,105,45,47.5,-50,47.5,125,140,-152.5,140,292.5,5,YNE
Kesia Tony,F,SBD,Raw,F-C-Open,92,84+,-100,100,125,125,70,75,77.5,77.5,180,-190,190,190,392.5,2,YNE
Laura Barker,F,SBD,Raw,F-C-Open,83.2,84,100,110,-120,110,60,-65,-65,60,120,130,-135,130,300,3,YNE
Laura Loft,F,SBD,Raw,F-C-Open,90.4,84+,152.5,162.5,170,170,70,-77.5,77.5,77.5,167.5,177.5,-185.5,177.5,425,1,YNE
Robyn Turnbull,F,SBD,Raw,F-C-Open,100.6,84+,110,117.5,-125,117.5,-57.5,57.5,-60,57.5,130,140,-150,140,315,4,YNE
Ruta Lendraitiene,F,SBD,Raw,F-C-Open,70.8,72,130,140,-145,140,85,92.5,-95,92.5,150,165,-170,165,397.5,1,YNE
Sophie Smith-Moore,F,SBD,Raw,F-C-Open,70.2,72,117.5,-125,-125,117.5,65,70,-72.5,70,140,-150,150,150,337.5,3,YNE
Wura Oyenekan,F,SBD,Raw,F-C-Open,69.4,72,100,115,125,125,50,55,62.5,62.5,110,130,150,150,337.5,2,YNE
Aimee Rutherford,F,SBD,Raw,F-C-Open,57.6,63,85,-92.5,-97.5,85,40,45,-47.5,45,100,110,120,120,250,11,YNE
Alexandra Justine Chapman,F,SBD,Raw,F-C-Open,55.6,57,80,90,92.5,92.5,40,47.5,-50,47.5,95,105,-112.5,105,245,4,YNE
Angela Edgar,F,SBD,Raw,F-C-Open,62.2,63,-85,-85,85,85,50,-55,-55,50,122.5,-130,130,130,265,9,YNE
Anna Leng,F,SBD,Raw,F-C-Open,54.6,57,95,105,-110,105,47.5,52.5,-55,52.5,100,110,115,115,272.5,2,YNE
Belal Ahmed,M,SBD,Raw,M-C-Open,58,59,120,130,-135,130,-80,80,85,85,150,155,-160,155,370,1,YNE
Chloe Boomer,F,SBD,Raw,F-C-Open,62.6,63,115,122.5,-127.5,122.5,60,62.5,-65,62.5,145,155,-162.5,155,340,2,YNE
Chloe Macek,F,SBD,Raw,F-C-Open,59,63,-112.5,-120,-120,,,,,,,,,,,DQ,YNE
Erin Aldcroft,F,SBD,Raw,F-C-Open,41.8,47,62.5,65,67.5,67.5,42.5,45,-47.5,45,90,-95,95,95,207.5,2,YNE
Frances Matthewman,F,SBD,Raw,F-C-Open,45.8,47,57.5,60,-62.5,60,37.5,40,42.5,42.5,100,105,112.5,112.5,215,1,YNE
Gemma Surtees,F,SBD,Raw,F-C-Open,61.6,63,110,120,-125,120,57.5,60,62.5,62.5,120,130,145,145,327.5,4,YNE
Georgia Rae,F,SBD,Raw,F-C-Open,61.6,63,82.5,90,-95,90,40,-45,-45,40,117.5,122.5,130,130,260,10,YNE
Jessica Terry,F,SBD,Raw,F-C-Open,55.4,57,85,92.5,-102.5,92.5,47.5,52.5,-55,52.5,117.5,122.5,-132.5,122.5,267.5,3,YNE
Josephine Penfold,F,SBD,Raw,F-C-Open,60,63,77.5,85,90,90,50,55,-62.5,55,105,110,120,120,265,8,YNE
Kathryn Gillott,F,SBD,Raw,F-C-Open,49.6,52,72.5,75,-82.5,75,37.5,40,-45,40,80,82.5,-87.5,82.5,197.5,1,YNE
Kayleigh Armstrong,F,SBD,Raw,F-C-Open,60.8,63,115,117.5,122.5,122.5,57.5,60,62.5,62.5,130,135,142.5,142.5,327.5,3,YNE
Kirsten McCaskill,F,SBD,Raw,F-C-Open,56.2,57,112.5,120,127.5,127.5,45,-47.5,-47.5,45,110,120,-125,120,292.5,1,YNE
Lucy Dawson,F,SBD,Raw,F-C-Open,61.4,63,80,90,-100,90,-50,55,-57.5,55,120,130,-135,130,275,6,YNE
Rahab McQueen,F,SBD,Raw,F-C-Open,50.2,52,35,45,-50,45,20,25,-30,25,50,60,70,70,140,2,YNE
Sophie Adey,F,SBD,Raw,F-C-Open,61.6,63,97.5,102.5,107.5,107.5,52.5,55,-57.5,55,117.5,125,-130,125,287.5,5,YNE
Teresa Dybisz,F,SBD,Raw,F-C-Open,59.8,63,82.5,87.5,92.5,92.5,52.5,55,-57.5,55,117.5,125,-132.5,125,272.5,7,YNE
Adam Haydon,M,SBD,Raw,M-C-Open,95.8,105,155,160,167.5,167.5,107.5,112.5,-117.5,112.5,205,215,225,225,505,16,YNE
Adam Laverick,M,SBD,Raw,M-C-Open,117,120,-220,220,-225,220,135,145,152.5,152.5,240,-252.5,-252.5,240,612.5,3,YNE
Alex Fodor,M,SBD,Raw,M-C-Open,73.2,74,200,210,217.5,217.5,132.5,137.5,142.5,142.5,235,255,-267.5,255,615,2,YNE
Andrew Fitt,M,SBD,Raw,M-C-Open,100,105,160,-180,180,180,120,-130,130,130,180,200,210,210,520,12,YNE
Areeb Rasaq,M,SBD,Raw,M-C-Open,70,74,125,130,140,140,75,-80,85,85,140,155,165,165,390,7,YNE
Ashley Parkinson,M,SBD,Raw,M-C-Open,102.4,105,155,170,185,185,100,110,-120,110,210,230,240,240,535,10,YNE
Blaine Harrison,M,SBD,Raw,M-C-Open,103.6,105,170,180,190,190,105,110,-115,110,190,200,210,210,510,15,YNE
Chris Pooley,M,SBD,Raw,M-C-Open,104.3,105,175,195,205,205,100,115,125,125,175,190,205,205,535,11,YNE
Daniel Armstrong,M,SBD,Raw,M-C-Open,101.2,105,170,-180,-180,170,105,-112.5,112.5,112.5,215,230,-240,230,512.5,13,YNE
Daniel Burns #1,M,SBD,Raw,M-C-Open,104.4,105,220,230,237.5,237.5,142.5,147.5,150,150,250,260,-265,260,647.5,3,YNE
David Coyle,M,SBD,Raw,M-C-Open,119.2,120,75,,,75,172.5,-180,-180,172.5,125,175,,175,422.5,6,YNE
Gerry-Lee Pierre,M,SBD,Raw,M-C-Open,101.8,105,235,245,250,250,160,-170,-170,160,260,272.5,280.5,280.5,690.5,2,YNE
Harry Regan,M,SBD,Raw,M-C-Open,113,120,207.5,225,-235,225,115,122.5,,122.5,247.5,260,,260,607.5,4,YNE
James Duff,M,SBD,Raw,M-C-Open,74,74,232.5,245,-250,245,132.5,140,-145,140,265,-275,-275,265,650,1,YNE
James Oliver,M,SBD,Raw,M-C-Open,102,105,220,237.5,245,245,160,-170,170,170,260,285,300,300,715,1,YNE
John Anderson #4,M,SBD,Raw,M-C-Open,100.8,105,150,160,-170,160,105,110,-112.5,110,200,215,222.5,222.5,492.5,17,YNE
Josh Morgan,M,SBD,Raw,M-C-Open,73.4,74,145,155,-162.5,155,95,100,-102.5,100,165,177.5,182.5,182.5,437.5,4,YNE
Kieran Gray,M,SBD,Raw,M-C-Open,103.6,105,200,-202.5,,200,150,160,167.5,167.5,200,,,200,567.5,8,YNE
Max Kenney-Herbert,M,SBD,Raw,M-C-Open,115,120,200,-215,220,220,115,125,132.5,132.5,240,260,-272.5,260,612.5,2,YNE
Michael Cook #1,M,SBD,Raw,M-C-Open,115.8,120,230,-250,270,270,160,170,-180,170,240,-260,-270,240,680,1,YNE
Oliver Johnson,M,SBD,Raw,M-C-Open,69.7,74,140,150,155,155,90,-95,-95,90,180,190,-205,190,435,5,YNE
Paul Martinson,M,SBD,Raw,M-C-Open,101.8,105,180,-190,200,200,130,140,-142.5,140,240,250,257.5,257.5,597.5,6,YNE
Rory Turnbull,M,SBD,Raw,M-C-Open,104.2,105,140,150,162.5,162.5,90,95,100,100,180,200,210,210,472.5,18,YNE
Sam Costigan,M,SBD,Raw,M-C-Open,112.6,120,170,180,185,185,135,-140,142.5,142.5,222.5,235,-242.5,235,562.5,5,YNE
Sam Halliday,M,SBD,Raw,M-C-Open,72.6,74,-125,125,,125,75,80,-82.5,80,160,167.5,172.5,172.5,377.5,8,YNE
Sam Lusher,M,SBD,Raw,M-C-Open,103,105,130,140,152.5,152.5,95,-100,105,105,140,150,162.5,162.5,420,19,YNE
Sean McPhillips,M,SBD,Raw,M-C-Open,102,105,210,-217.5,,210,140,145,150,150,255,-262.5,,255,615,5,YNE
Sean Percival-Scott,M,SBD,Raw,M-C-Open,94.8,105,160,170,175,175,120,-130,-140,120,190,205,215,215,510,14,YNE
Shaun Abbott,M,SBD,Raw,M-C-Open,96.8,105,192.5,205,215,215,125,132.5,135,135,185,197.5,210,210,560,9,YNE
Steve Martin,M,SBD,Raw,M-C-Open,103.4,105,190,205,215,215,120,127.5,132.5,132.5,215,227.5,235,235,582.5,7,YNE
Stuart Thompson,M,SBD,Raw,M-C-Open,122.1,120+,195,205,215,215,160,165,167.5,167.5,250,270,-275,270,652.5,1,YNE
Tim Garrett,M,SBD,Raw,M-C-Open,100.6,105,212.5,225,237.5,237.5,125,135,142.5,142.5,240,257.5,-270,257.5,637.5,4,YNE
Alexander Taylor,M,SBD,Raw,M-C-Open,81.2,83,145,155,165,165,80,87.5,-92.5,87.5,175,187.5,-200,187.5,440,10,YNE
Ashley Harrison,M,SBD,Raw,M-C-Open,91,93,170,190,-200,190,110,-120,120,120,210,215,225,225,535,6,YNE
Ben Willis,M,SBD,Raw,M-C-Open,82.4,83,205,217.5,230,230,130,-135,135,135,240,255,-265,255,620,2,YNE
Cameron Lawson,M,SBD,Raw,M-C-Open,81.6,83,150,-160,160,160,100,110,-117.5,110,180,190,200,200,470,8,YNE
Chris Bull,M,SBD,Raw,M-C-Open,90,93,150,160,162.5,162.5,105,112.5,-117.5,112.5,155,175,-182.5,175,450,8,YNE
Chris Howell,M,SBD,Raw,M-C-Open,91.4,93,200,210,,210,135,145,150,150,210,225,232.5,232.5,592.5,5,YNE
Curtis Bennett,M,SBD,Raw,M-C-Open,90.2,93,-140,140,150,150,-100,100,-105,100,170,180,190,190,440,9,YNE
Dan Gibson,M,SBD,Raw,M-C-Open,81.8,83,195,207.5,-217.5,207.5,132.5,137.5,-142.5,137.5,215,230,245,245,590,3,YNE
Daniel Bedford #1,M,SBD,Raw,M-C-Open,92.8,93,232.5,242.5,255,255,150,-160,160,160,255,270,285,285,700,1,YNE
Dylan Nelson #1,M,SBD,Raw,M-C-Open,81.6,83,245,262.5,-272.5,262.5,135,140,145,145,195,212.5,-230,212.5,620,1,YNE
Eoghan Moriarty,M,SBD,Raw,M-C-Open,89.2,93,190,200,207.5,207.5,120,132.5,-137.5,132.5,235,245,252.5,252.5,592.5,4,YNE
Gareth Sellers,M,SBD,Raw,M-C-Open,66.4,74,175,-185,185,185,-110,110,120,120,140,,,140,445,3,YNE
Joe Marks,M,SBD,Raw,M-C-Open,81.6,83,180,200,-215,200,110,-115,115,115,245,265,-285.5,265,580,4,YNE
Joe Sherwood,M,SBD,Raw,M-C-Open,64.4,66,155,-170,-170,155,77.5,82.5,-85,82.5,157.5,167.5,-175,167.5,405,6,YNE
Jonathan Watson,M,SBD,Raw,M-C-Open,92,93,215,230,-240,230,140,-150,-150,140,260,280,301,301,671,2,YNE
Jordan Eastwood,M,SBD,Raw,M-C-Open,93,93,205,220,225,225,160,-165,,160,-215,215,250,250,635,3,YNE
Luke Siddle,M,SBD,Raw,M-C-Open,81.4,83,180,190,200,200,110,120,127.5,127.5,180,200,205,205,532.5,5,YNE
Marc Osborne,M,SBD,Raw,M-C-Open,82.4,83,145,157.5,167.5,167.5,92.5,100,110,110,175,195,207.5,207.5,485,7,YNE
Max Bashiri,M,SBD,Raw,M-C-G,85,93,180,190,197.5,197.5,115,-122.5,122.5,122.5,212.5,222.5,227.5,227.5,547.5,G,
Nick Humphries,M,SBD,Raw,M-C-Open,82.8,83,170,-180,185,185,100,105,-110,105,200,220,235,235,525,6,YNE
Ray Richardson,M,SBD,Raw,M-C-Open,81.2,83,155,165,175,175,95,105,112.5,112.5,160,175,-185,175,462.5,9,YNE
Rhy Richardson,M,SBD,Raw,M-C-Open,92.4,93,160,172.5,185,185,100,110,-115,110,185,200,220,220,515,7,YNE
Ricky Foulkes,M,SBD,Raw,M-C-Open,90,93,80,87.5,92.5,92.5,70,75,80,80,110,120,130,130,302.5,10,YNE
William Rushworth,M,SBD,Raw,M-C-Open,82.4,83,-157.5,157.5,-167.5,157.5,90,95,-100,95,152.5,170,180,180,432.5,11,YNE
