Division,WeightClassKg,Place,Name,Team,BodyweightKg,Best3SquatKg,Best3BenchKg,Best3DeadliftKg,TotalKg,Equipment,Event,Sex,BirthDate
Boys,51.71,1,Colten Gross,Bridge City,51.71,83.91,49.9,117.93,251.74,Single-ply,SBD,M,
Boys,51.71,2,Dray Renfrow,Bridge City,41.28,70.31,43.09,102.06,215.46,Single-ply,SBD,M,
Boys,55.79,1,Rio Garcia,Deweyville,55.34,136.08,88.45,142.88,367.41,Single-ply,SBD,M,
Boys,55.79,2,Lane Gray,Deweyville,52.16,72.57,40.82,92.99,206.38,Single-ply,SBD,M,
Boys,59.87,1,James Hawkins,Bridge City,59.42,95.25,56.7,120.2,272.16,Single-ply,SBD,M,
Boys,67.13,1,Elijah Curl,Deweyville,64.86,122.47,79.38,136.08,337.93,Single-ply,SBD,M,
Boys,67.13,2,Tyler Anderson,Bridge City,66.22,74.84,43.09,108.86,226.8,Single-ply,SBD,M,
Boys,74.84,1,Aden Lapeyrolerie,Bridge City,68.95,147.42,88.45,149.69,385.55,Single-ply,SBD,M,
Boys,74.84,2,Jared Harrell,Beaumont West Brook,73.03,129.27,81.65,158.76,369.68,Single-ply,SBD,M,
Boys,74.84,3,Zack Dommert,Bridge City,74.84,133.81,79.38,90.72,303.91,Single-ply,SBD,M,
Boys,74.84,4,William Myers,Bridge City,73.48,97.52,65.77,104.33,267.62,Single-ply,SBD,M,
Boys,74.84,5,Calvin Delaney,Bridge City,74.39,83.91,61.23,106.59,251.74,Single-ply,SBD,M,
Boys,74.84,DQ,Ian Roberts,Bridge City,68.49,,38.56,111.13,,Single-ply,SBD,M,
Boys,82.1,1,Jarvis Bassett,Beaumont West Brook,80.74,102.06,88.45,113.4,303.91,Single-ply,SBD,M,
Boys,82.1,2,Mikail Molley,Bridge City,80.29,120.2,58.97,113.4,292.57,Single-ply,SBD,M,
Boys,82.1,DQ,Jared Cox,Bridge City,76.66,,65.77,129.27,,Single-ply,SBD,M,
Boys,89.81,1,Ryan Bland,Deweyville,89.36,181.44,102.06,210.92,494.42,Single-ply,SBD,M,
Boys,89.81,2,Nathan Parker,Deweyville,86.18,176.9,117.93,188.24,483.08,Single-ply,SBD,M,
Boys,99.79,1,Mason Pruett,Bridge City,95.71,161.03,95.25,176.9,433.18,Single-ply,SBD,M,
Boys,99.79,2,Daniel Sams,Beaumont West Brook,91.63,131.54,102.06,154.22,387.82,Single-ply,SBD,M,
Boys,99.79,3,Victor Ortiz,Bridge City,91.17,147.42,83.91,147.42,378.75,Single-ply,SBD,M,
Boys,99.79,4,Micah Curl,Deweyville,94.8,127.01,83.91,151.95,362.87,Single-ply,SBD,M,
Boys,99.79,5,Michael Forker,Deweyville,90.72,122.47,65.77,136.08,324.32,Single-ply,SBD,M,
Boys,99.79,6,Raegan Graves,Bridge City,94.8,104.33,65.77,145.15,315.25,Single-ply,SBD,M,
Boys,109.77,1,Kolbe Hughes,Deweyville,102.51,165.56,95.25,158.76,419.57,Single-ply,SBD,M,
Boys,109.77,2,Laundre Veazie,Beaumont West Brook,108.86,136.08,95.25,154.22,385.55,Single-ply,SBD,M,
Boys,109.77,3,Devaughn Hebert,Beaumont West Brook,100.24,108.86,99.79,172.37,381.02,Single-ply,SBD,M,
Boys,124.74,1,Luis Gonzalez,Deweyville,114.31,231.33,136.08,192.78,560.19,Single-ply,SBD,M,
Boys,124.74,2,Nicholas Lejeune,Bridge City,115.67,204.12,120.2,204.12,528.44,Single-ply,SBD,M,
Boys,124.74,3,Jabareus Broussard,Beaumont West Brook,122.47,190.51,124.74,192.78,508.02,Single-ply,SBD,M,
Boys,124.74,4,Jeremiah Thibodeaux,Beaumont West Brook,123.83,111.13,72.57,133.81,317.51,Single-ply,SBD,M,
Boys,139.71+,1,Kevin Jackson,Beaumont West Brook,166.92,142.88,74.84,158.76,376.48,Single-ply,SBD,M,
Boys,139.71+,2,Malcolm Peters,Beaumont West Brook,155.13,124.74,90.72,151.95,367.41,Single-ply,SBD,M,
