Division,WeightClassKg,Place,Name,Team,BodyweightKg,Best3SquatKg,Best3BenchKg,Best3DeadliftKg,TotalKg,Equipment,Event,Sex,BirthDate
Boys,51.71,1,Tristan Brown,Nederland,51.62,138.35,72.57,149.69,360.61,Single-ply,SBD,M,
Boys,51.71,2,Caleb Johnson,Lumberton,51.17,131.54,79.38,129.27,340.19,Single-ply,SBD,M,
Boys,51.71,3,Tyler Hoang,Nederland,,124.74,74.84,133.81,333.39,Single-ply,SBD,M,
Boys,51.71,4,Marcelo Avalos,Vidor,,106.59,70.31,117.93,294.84,Single-ply,SBD,M,
Boys,51.71,5,Griffin Guidry,Nederland,36.29,70.31,36.29,90.72,197.31,Single-ply,SBD,M,
Boys,51.71,DQ,Ty Cox,Lumberton,45.36,,,,,Single-ply,SBD,M,
Boys,55.79,1,Cole Johnson,Sour Lake Hardin-Jefferson,54.88,124.74,79.38,124.74,328.85,Single-ply,SBD,M,
Boys,55.79,2,Kellen McCracken,Sour Lake Hardin-Jefferson,55.43,99.79,68.04,131.54,299.37,Single-ply,SBD,M,
Boys,59.87,1,Wilson Bell,Nederland,58.24,111.13,72.57,124.74,308.44,Single-ply,SBD,M,
Boys,59.87,2,Terron Young,Sour Lake Hardin-Jefferson,56.88,106.59,63.5,133.81,303.91,Single-ply,SBD,M,
Boys,59.87,3,Jayse DeLa'O,Nederland,58.06,99.79,77.11,124.74,301.64,Single-ply,SBD,M,
Boys,67.13,1,Roberto Suarez,Lumberton,63.5,181.44,113.4,172.37,467.2,Single-ply,SBD,M,
Boys,67.13,2,Ajay Adharson,Nederland,61.42,131.54,72.57,188.24,392.36,Single-ply,SBD,M,
Boys,67.13,3,Keaton Winberry,Vidor,65.14,154.22,83.91,142.88,381.02,Single-ply,SBD,M,
Boys,67.13,4,Connor Gay,Sour Lake Hardin-Jefferson,60.51,138.35,72.57,147.42,358.34,Single-ply,SBD,M,
Boys,67.13,5,Seth Miller,Sour Lake Hardin-Jefferson,63.59,133.81,68.04,147.42,349.27,Single-ply,SBD,M,
Boys,74.84,1,Seth Rodgers,Vidor,74.84,208.65,117.93,201.85,528.44,Single-ply,SBD,M,
Boys,74.84,2,Joshua Samler,Sour Lake Hardin-Jefferson,74.39,183.7,102.06,197.31,483.08,Single-ply,SBD,M,
Boys,74.84,3,Moises Padilla,Sour Lake Hardin-Jefferson,74.3,183.7,102.06,183.7,469.47,Single-ply,SBD,M,
Boys,74.84,4,Derik Estrada,Lumberton,70.31,170.1,92.99,188.24,451.32,Single-ply,SBD,M,
Boys,74.84,5,Kasey McClory,Lumberton,73.57,151.95,86.18,188.24,426.38,Single-ply,SBD,M,
Boys,74.84,6,Travis Chretien,Sour Lake Hardin-Jefferson,73.75,156.49,86.18,170.1,412.77,Single-ply,SBD,M,
Boys,74.84,7,Xander Reeves,Sour Lake Hardin-Jefferson,72.03,147.42,88.45,158.76,394.63,Single-ply,SBD,M,
Boys,74.84,DQ,Taylor Chizer,Lumberton,73.12,142.88,,,,Single-ply,SBD,M,
Boys,74.84,DQ,Amari Berry,Sour Lake Hardin-Jefferson,72.67,154.22,,,,Single-ply,SBD,M,
Boys,82.1,1,Jesse Myers,Vidor,82.1,222.26,127.01,190.51,539.77,Single-ply,SBD,M,
Boys,82.1,2,Riley Marlow,Vidor,79.02,199.58,129.27,195.04,523.9,Single-ply,SBD,M,
Boys,82.1,3,Ricky Bynum,Vidor,81.47,204.12,102.06,190.51,496.68,Single-ply,SBD,M,
Boys,82.1,4,Easton Stapleton,Lumberton,82.1,172.37,113.4,197.31,483.08,Single-ply,SBD,M,
Boys,82.1,5,Andres Martinez,Sour Lake Hardin-Jefferson,82.01,158.76,95.25,188.24,442.25,Single-ply,SBD,M,
Boys,89.81,1,Caysen Guerra,Nederland,87.18,217.72,127.01,217.72,562.45,Single-ply,SBD,M,
Boys,89.81,2,Chris Cantu,Vidor,88.09,192.78,124.74,210.92,528.44,Single-ply,SBD,M,
Boys,89.81,3,Tyler Rojas,Vidor,88.09,199.58,131.54,185.97,517.1,Single-ply,SBD,M,
Boys,89.81,4,Gavyn Good,Lumberton,89.81,192.78,124.74,197.31,514.83,Single-ply,SBD,M,
Boys,89.81,5,Akzayakatl Zambrano,Vidor,88.81,192.78,99.79,217.72,510.29,Single-ply,SBD,M,
Boys,89.81,6,Brooklyn Freeman,Vidor,86.91,183.7,106.59,167.83,458.13,Single-ply,SBD,M,
Boys,89.81,DQ,Paul Moore,Sour Lake Hardin-Jefferson,88.9,165.56,95.25,,,Single-ply,SBD,M,
Boys,99.79,1,Faustino Galvan,Lumberton,91.81,224.53,156.49,235.87,616.89,Single-ply,SBD,M,
Boys,99.79,2,Johnnie Torres,Nederland,90.9,240.4,127.01,242.67,610.08,Single-ply,SBD,M,
Boys,99.79,3,Logan Hodges,Sour Lake Hardin-Jefferson,91.81,192.78,106.59,197.31,496.68,Single-ply,SBD,M,
Boys,99.79,4,Carter Concienne,Nederland,95.16,195.04,106.59,174.63,476.27,Single-ply,SBD,M,
Boys,99.79,5,Robert Hughes,Nederland,90.72,154.22,74.84,156.49,385.55,Single-ply,SBD,M,
Boys,109.77,1,Grayden Spencer,Lumberton,109.23,240.4,133.81,254.01,628.23,Single-ply,SBD,M,
Boys,109.77,2,Hendon Robert,Lumberton,102.06,238.14,115.67,204.12,557.92,Single-ply,SBD,M,
Boys,109.77,3,Lane Leviness,Vidor,104.96,208.65,138.35,183.7,530.7,Single-ply,SBD,M,
Boys,109.77,4,Brayden Bordeus,Lumberton,108.77,204.12,102.06,183.7,489.88,Single-ply,SBD,M,
Boys,124.74,1,Gabe Hernandez,Lumberton,119.29,213.19,151.95,204.12,569.26,Single-ply,SBD,M,
Boys,124.74,2,Wacy Blanchard,Nederland,114.03,242.67,113.4,192.78,548.85,Single-ply,SBD,M,
Boys,124.74,3,Rylan Morgan,Sour Lake Hardin-Jefferson,119.84,233.6,131.54,161.03,526.17,Single-ply,SBD,M,
Boys,124.74,DQ,Cameron Petry,Vidor,111.04,244.94,,,,Single-ply,SBD,M,
Boys,139.71,1,Holden Craver,Nederland,137.89,306.17,161.03,226.8,694,Single-ply,SBD,M,
Boys,139.71,2,Peter Thielen,Sour Lake Hardin-Jefferson,126.01,260.82,158.76,219.99,639.57,Single-ply,SBD,M,
Boys,139.71,3,Colby Smith,Nederland,129.73,217.72,127.01,183.7,528.44,Single-ply,SBD,M,
Boys,139.71,4,Donovan Roe,Lumberton,128.73,170.1,102.06,188.24,460.4,Single-ply,SBD,M,
Boys,139.71,5,Metts Holden,Nederland,131.27,145.15,88.45,145.15,378.75,Single-ply,SBD,M,
Boys,139.71+,1,Andrew Hall,Nederland,169.01,229.06,145.15,215.46,589.67,Single-ply,SBD,M,
