Division,WeightClassKg,Place,Name,Team,BodyweightKg,Best3SquatKg,Best3BenchKg,Best3DeadliftKg,TotalKg,Equipment,Event,Sex,BirthDate
Boys,51.71,1,Avery Roberts,Brownsboro,51.26,120.2,70.31,129.27,319.78,Single-ply,SBD,M,
Boys,51.71,2,Ethan Braun,Brownsboro,51.26,92.99,58.97,102.06,254.01,Single-ply,SBD,M,
Boys,51.71,3,Mario Guajardo,Wills Point,51.26,92.99,58.97,97.52,249.48,Single-ply,SBD,M,
Boys,51.71,4,Cooper O'Neal,Sunnyvale,50.35,97.52,45.36,97.52,240.4,Single-ply,SBD,M,
Boys,51.71,5,Omar Perez,Mineola,44.41,83.91,52.16,102.06,238.14,Single-ply,SBD,M,
Boys,55.79,1,Ivan Sifuentes,Wills Point,53.07,142.88,81.65,140.61,365.14,Single-ply,SBD,M,
Boys,55.79,2,Dillon Dryman,Sunnyvale,55.34,108.86,58.97,99.79,267.62,Single-ply,SBD,M,
Boys,59.87,1,Kyle Crawford,Brownsboro,59.87,190.51,108.86,210.92,510.29,Single-ply,SBD,M,
Boys,59.87,2,Hunter Washington,Brownsboro,59.42,165.56,92.99,174.63,433.18,Single-ply,SBD,M,
Boys,59.87,3,Curtis Griffith,Canton,56.7,136.08,72.57,138.35,347,Single-ply,SBD,M,
Boys,59.87,4,Cashis Lee-Brown,Athens,59.87,124.74,74.84,138.35,337.93,Single-ply,SBD,M,
Boys,59.87,5,Jaden Lopez,Sunnyvale,58.06,120.2,77.11,136.08,333.39,Single-ply,SBD,M,
Boys,59.87,6,Jonathan Cockrell,Pollok Central,58.97,124.74,61.23,140.61,326.59,Single-ply,SBD,M,
Boys,59.87,7,Rocky Bonilla,Kaufman,58.97,106.59,61.23,142.88,310.71,Single-ply,SBD,M,
Boys,59.87,8,Sheldon Taylor,Wills Point,59.87,102.06,65.77,127.01,294.84,Single-ply,SBD,M,
Boys,59.87,9,Steven Turbyfill,Malakoff Cross Roads,58.51,102.06,61.23,127.01,290.3,Single-ply,SBD,M,
Boys,59.87,10,Tristan Himes,Malakoff Cross Roads,56.7,95.25,65.77,120.2,281.23,Single-ply,SBD,M,
Boys,59.87,11,Dalton Hamlin,Mineola,58.51,99.79,52.16,117.93,269.89,Single-ply,SBD,M,
Boys,59.87,DQ,Mason Moore,Emory Rains,59.87,65.77,38.56,,,Single-ply,SBD,M,
Boys,67.13,1,Landon Fretwell,Brownsboro,66.22,195.04,124.74,190.51,510.29,Single-ply,SBD,M,
Boys,67.13,2,Leonel Padron,Quinlan Ford,67.13,208.65,120.2,174.63,503.49,Single-ply,SBD,M,
Boys,67.13,3,Juan Muñoz,Quinlan Ford,67.13,188.24,106.59,183.7,478.54,Single-ply,SBD,M,
Boys,67.13,4,Davis Njoroge,Wills Point,60.1,167.83,83.91,151.95,403.7,Single-ply,SBD,M,
Boys,67.13,5,Chris Alejo,Mineola,66.68,138.35,92.99,165.56,396.89,Single-ply,SBD,M,
Boys,67.13,6,Cameron Griffith,Canton,63.5,131.54,74.84,138.35,344.73,Single-ply,SBD,M,
Boys,67.13,7,James Wisk,Elysian Fields,66.68,120.2,86.18,136.08,342.46,Single-ply,SBD,M,
Boys,67.13,8,Keegan Angell,Canton,63.5,129.27,70.31,136.08,335.66,Single-ply,SBD,M,
Boys,67.13,9,Blane Harris,Mineola,67.13,106.59,56.7,115.67,278.96,Single-ply,SBD,M,
Boys,67.13,10,Jesse Reeves,Emory Rains,60.78,83.91,52.16,136.08,272.16,Single-ply,SBD,M,
Boys,67.13,11,Noah Marshall,Quinlan Ford,63.5,90.72,47.63,102.06,240.4,Single-ply,SBD,M,
Boys,67.13,DQ,Dylan Slyter,Sunnyvale,67.13,,,,,Single-ply,SBD,M,
Boys,67.13,DQ,Adam Blalock,Mineola,62.14,151.95,,,,Single-ply,SBD,M,
Boys,67.13,DQ,Parker Harris,Mineola,66.22,147.42,,,,Single-ply,SBD,M,
Boys,74.84,1,Gabriel Westlake,Quinlan Ford,73.94,215.46,113.4,206.38,535.24,Single-ply,SBD,M,
Boys,74.84,2,Carson Coldwell,Sunnyvale,74.39,226.8,120.2,181.44,528.44,Single-ply,SBD,M,
Boys,74.84,3,Robert Haney,Brownsboro,71.94,188.24,120.2,188.24,496.68,Single-ply,SBD,M,
Boys,74.84,4,Kaden O'Neal,Sunnyvale,74.39,170.1,111.13,176.9,458.13,Single-ply,SBD,M,
Boys,74.84,5,Mitchum Patterson,Kaufman,74.84,154.22,102.06,183.7,439.98,Single-ply,SBD,M,
Boys,74.84,6,Monty Vandemeer,Wills Point,71.67,147.42,90.72,154.22,392.36,Single-ply,SBD,M,
Boys,74.84,7,Braylon Peckham,Mineola,74.39,147.42,88.45,156.49,392.36,Single-ply,SBD,M,
Boys,74.84,8,Daniel Castañeda,Athens,72.57,136.08,79.38,154.22,369.68,Single-ply,SBD,M,
Boys,74.84,9,Cameron Weigman,Brownsboro,68.04,133.81,74.84,142.88,351.53,Single-ply,SBD,M,
Boys,74.84,10,Tuff Arozamena,Van,74.39,124.74,83.91,136.08,344.73,Single-ply,SBD,M,
Boys,74.84,11,Brock Meeks,Canton,68.49,131.54,65.77,133.81,331.12,Single-ply,SBD,M,
Boys,74.84,12,Jeremy Elliot,Kaufman,69.85,102.06,68.04,156.49,326.59,Single-ply,SBD,M,
Boys,74.84,13,Seth Estoll,Mineola,68.04,108.86,70.31,142.88,322.05,Single-ply,SBD,M,
Boys,82.1,1,Ty Grace,Sunnyvale,82.1,197.31,115.67,183.7,496.68,Single-ply,SBD,M,
Boys,82.1,2,Waylon Bozeman,Emory Rains,81.19,188.24,104.33,188.24,480.81,Single-ply,SBD,M,
Boys,82.1,3,Jesse Hipp,Canton,82.1,170.1,92.99,170.1,433.18,Single-ply,SBD,M,
Boys,82.1,4,Braydon Hart,Malakoff Cross Roads,79.38,170.1,102.06,151.95,424.11,Single-ply,SBD,M,
Boys,82.1,5,Jayden Reed,Kaufman,76.66,129.27,92.99,158.76,381.02,Single-ply,SBD,M,
Boys,82.1,6,Josh Christian,Van,78.15,147.42,79.38,140.61,367.41,Single-ply,SBD,M,
Boys,82.1,7,Ethan Dunham,Mineola,78.93,138.35,83.91,145.15,367.41,Single-ply,SBD,M,
Boys,82.1,8,Hayden Lambeth,Kaufman,78.93,120.2,92.99,147.42,360.61,Single-ply,SBD,M,
Boys,82.1,9,Zach Haskins,Mineola,76.66,124.74,70.31,136.08,331.12,Single-ply,SBD,M,
Boys,82.1,10,Angelo Magallon,Canton,77.11,117.93,70.31,136.08,324.32,Single-ply,SBD,M,
Boys,89.81,1,Jadonavan Williams,Quinlan Ford,87.09,240.4,158.76,242.67,641.83,Single-ply,SBD,M,
Boys,89.81,2,Hayden Taylor,Wills Point,89.81,206.38,129.27,206.38,542.04,Single-ply,SBD,M,
Boys,89.81,3,Logan Schwering,Athens,85.28,183.7,102.06,192.78,478.54,Single-ply,SBD,M,
Boys,89.81,4,Dawson Duty,Canton,86.64,176.9,106.59,167.83,451.32,Single-ply,SBD,M,
Boys,89.81,5,Joe Ruiz,Van,89.72,170.1,97.52,170.1,437.72,Single-ply,SBD,M,
Boys,89.81,6,Brady Hudler,Brownsboro,89.81,165.56,104.33,167.83,437.72,Single-ply,SBD,M,
Boys,89.81,7,David Ruiz,Kaufman,87.54,142.88,108.86,183.7,435.45,Single-ply,SBD,M,
Boys,89.81,8,Tommy Trent,Mineola,87.54,158.76,88.45,181.44,428.64,Single-ply,SBD,M,
Boys,89.81,9,Paul Stanley,Mineola,84.37,147.42,102.06,167.83,417.3,Single-ply,SBD,M,
Boys,89.81,10,Luke Thomas,Kaufman,88.45,154.22,102.06,154.22,410.5,Single-ply,SBD,M,
Boys,89.81,11,Kaden Thornton,Pollok Central,89.36,138.35,88.45,165.56,392.36,Single-ply,SBD,M,
Boys,89.81,DQ,Braydon Hullum,Van,86.27,,,,,Single-ply,SBD,M,
Boys,89.81,DQ,Nathan McGill,Brownsboro,88.45,158.76,,183.7,,Single-ply,SBD,M,
Boys,99.79,1,Diyan Pun,Sunnyvale,97.07,242.67,158.76,242.67,644.1,Single-ply,SBD,M,
Boys,99.79,2,Kaiden Roden,Quinlan Ford,91.63,256.28,158.76,215.46,630.49,Single-ply,SBD,M,
Boys,99.79,3,Nate Burlseon,Sunnyvale,97.98,195.04,106.59,199.58,501.22,Single-ply,SBD,M,
Boys,99.79,4,Hunter Heacox,Malakoff Cross Roads,97.98,158.76,99.79,188.24,446.79,Single-ply,SBD,M,
Boys,99.79,5,Bryson Myers,Mineola,92.53,174.63,102.06,151.95,428.64,Single-ply,SBD,M,
Boys,99.79,6,Chase Agy,Quinlan Ford,95.71,163.29,90.72,167.83,421.84,Single-ply,SBD,M,
Boys,99.79,7,Jesus Alanis-Zamago,Pollok Central,99.79,124.74,65.77,147.42,337.93,Single-ply,SBD,M,
Boys,99.79,8,Juan Cruz,Wills Point,92.08,142.88,70.31,115.67,328.85,Single-ply,SBD,M,
Boys,109.77,1,Ryan Magrill,Brownsboro,101.6,288.03,183.7,226.8,698.53,Single-ply,SBD,M,
Boys,109.77,2,Nathan Ramey,Sunnyvale,105.23,222.26,129.27,226.8,578.33,Single-ply,SBD,M,
Boys,109.77,3,Jj Goode,Wills Point,107.5,222.26,136.08,185.97,544.31,Single-ply,SBD,M,
Boys,109.77,4,Travis Shirley,Quinlan Ford,103.87,213.19,136.08,190.51,539.77,Single-ply,SBD,M,
Boys,109.77,5,Carter Anderson,Pollok Central,100.7,197.31,111.13,204.12,512.56,Single-ply,SBD,M,
Boys,109.77,6,Kolten Crawford,Emory Rains,107.95,174.63,113.4,199.58,487.61,Single-ply,SBD,M,
Boys,109.77,7,Alberto Arellano,Kaufman,104.78,161.03,115.67,183.7,460.4,Single-ply,SBD,M,
Boys,109.77,8,Eric Espinosa,Kaufman,109.32,163.29,102.06,183.7,449.06,Single-ply,SBD,M,
Boys,109.77,9,Blake Flanigan,Sunnyvale,104.78,176.9,102.06,167.83,446.79,Single-ply,SBD,M,
Boys,109.77,10,Dakota Ryder,Wills Point,105.23,183.7,102.06,158.76,444.52,Single-ply,SBD,M,
Boys,109.77,11,Juan Zamarrippa,Pollok Central,100.38,163.29,65.77,149.69,378.75,Single-ply,SBD,M,
Boys,124.74,1,Dj Newsome,Mineola,111.13,226.8,142.88,242.67,612.35,Single-ply,SBD,M,
Boys,124.74,2,Alyric Brown,Sunnyvale,114.76,238.14,129.27,242.67,610.08,Single-ply,SBD,M,
Boys,124.74,3,Tavin States,Quinlan Ford,122.47,206.38,117.93,210.92,535.24,Single-ply,SBD,M,
Boys,124.74,4,Jose Suarez,Van,124.74,222.26,97.52,204.12,523.9,Single-ply,SBD,M,
Boys,124.74,5,Reggie Johnson,Van,113.35,229.06,102.06,190.51,521.63,Single-ply,SBD,M,
Boys,124.74,6,Jalon Gillaspie,Sunnyvale,124.74,181.44,136.08,188.24,505.76,Single-ply,SBD,M,
Boys,124.74,7,Alonzo Tijerina,Kaufman,122.47,174.63,124.74,179.17,478.54,Single-ply,SBD,M,
Boys,124.74,8,Aiden Gonzalez,Pollok Central,124.28,195.04,97.52,183.7,476.27,Single-ply,SBD,M,
Boys,124.74,9,David Seagroves,Brownsboro,123.38,170.1,124.74,174.63,469.47,Single-ply,SBD,M,
Boys,124.74,10,Kepler Maulthaup,Van,118.84,192.78,90.72,181.44,464.93,Single-ply,SBD,M,
Boys,124.74,11,Zach Carranza,Athens,115.21,167.83,117.93,165.56,451.32,Single-ply,SBD,M,
Boys,124.74,12,Damion Joiner,Van,118.84,163.29,83.91,181.44,428.64,Single-ply,SBD,M,
Boys,124.74,13,Jason Rushing,Mineola,113.4,136.08,106.59,156.49,399.16,Single-ply,SBD,M,
Boys,124.74,14,Scott Eubanks,Emory Rains,121.11,145.15,102.06,142.88,390.09,Single-ply,SBD,M,
Boys,124.74,15,David Alvarado,Malakoff Cross Roads,112.49,147.42,81.65,129.27,358.34,Single-ply,SBD,M,
Boys,124.74,DQ,Brandon Mathews,Kaufman,118.39,190.51,142.88,,,Single-ply,SBD,M,
Boys,139.71,1,Brandon James,Quinlan Ford,132.45,290.3,156.49,242.67,689.46,Single-ply,SBD,M,
Boys,139.71,2,Trevor Marquez,Malakoff Cross Roads,139.12,256.28,158.76,215.46,630.49,Single-ply,SBD,M,
Boys,139.71,3,Gage Parker,Elysian Fields,130.63,240.4,158.76,204.12,603.28,Single-ply,SBD,M,
Boys,139.71,4,Jorge Garcia,Kaufman,127.91,204.12,142.88,210.92,557.92,Single-ply,SBD,M,
Boys,139.71,5,Trae Derrick,Van,129.36,222.26,113.4,170.1,505.76,Single-ply,SBD,M,
Boys,139.71,DQ,Branson Rhone,Brownsboro,138.8,,124.74,206.38,,Single-ply,SBD,M,
Boys,139.71+,1,D'Angelo Vazquez,Malakoff Cross Roads,149.69,226.8,104.33,183.7,514.83,Single-ply,SBD,M,
Boys,139.71+,2,Josh Vazquez,Malakoff Cross Roads,141.07,197.31,83.91,147.42,428.64,Single-ply,SBD,M,
Boys,139.71+,DQ,Kris Mayes,Wills Point,176.9,272.16,,192.78,,Single-ply,SBD,M,
Boys,,NS,Dez Overshine,Pollok Central,,,,,,Single-ply,SBD,M,
Boys,,NS,Ethan Poindexter,Pollok Central,,,,,,Single-ply,SBD,M,
Boys,,NS,August Adams,Malakoff Cross Roads,,,,,,Single-ply,SBD,M,
Boys,,NS,Ethan Julian,Malakoff Cross Roads,,,,,,Single-ply,SBD,M,
Boys,,NS,Payton Cantrell,Mineola,,,,,,Single-ply,SBD,M,
Boys,,NS,Corde Berry,Mineola,,,,,,Single-ply,SBD,M,
Boys,,NS,Moises Vasquez,Mineola,,,,,,Single-ply,SBD,M,
Boys,,NS,Ethan Alexander,Mineola,,,,,,Single-ply,SBD,M,
Boys,,NS,Daniel Brockway,Canton,,,,,,Single-ply,SBD,M,
Boys,,NS,Jonathan Berry,Canton,,,,,,Single-ply,SBD,M,
Boys,,NS,Will Bowers,Kaufman,,,,,,Single-ply,SBD,M,
Boys,,NS,Robert Scadlock,Emory Rains,,,,,,Single-ply,SBD,M,
Boys,,NS,Jake Batts,Emory Rains,,,,,,Single-ply,SBD,M,
Boys,,NS,Angel Saldivar,Sunnyvale,,,,,,Single-ply,SBD,M,
Boys,,NS,Stephen Rodriguez,Wills Point,,,,,,Single-ply,SBD,M,
Boys,,NS,Landon Wright,Sunnyvale,,,,,,Single-ply,SBD,M,
Boys,,NS,Ruger Cates,Wills Point,,,,,,Single-ply,SBD,M,
Boys,,NS,Carson Maddox,Wills Point,,,,,,Single-ply,SBD,M,
