Division,WeightClassKg,Place,Name,Team,BodyweightKg,Best3SquatKg,Best3BenchKg,Best3DeadliftKg,TotalKg,Equipment,Event,Sex,BirthDate
Boys,51.71,1,Juan Gonzales,Gladewater Sabine,50.89,120.2,65.77,120.2,306.17,Single-ply,SBD,M,
Boys,51.71,2,Alex Simpson,Daingerfield,51.71,90.72,65.77,108.86,265.35,Single-ply,SBD,M,
Boys,51.71,3,Juan Ramos,Daingerfield,49.99,61.23,47.63,104.33,213.19,Single-ply,SBD,M,
Boys,51.71,4,Matt Watkins,Daingerfield,49.8,65.77,43.09,83.91,192.78,Single-ply,SBD,M,
Boys,59.87,1,Caden Phillips,Gladewater Sabine,59.87,158.76,113.4,151.95,424.11,Single-ply,SBD,M,
Boys,59.87,2,Jayden Mitchell,Daingerfield,57.7,79.38,54.43,88.45,222.26,Single-ply,SBD,M,
Boys,59.87,DQ,Joe Ray,Gladewater Sabine,59.51,140.61,,,,Single-ply,SBD,M,
Boys,67.13,1,Kile Stripland,Gladewater Sabine,67.13,192.78,115.67,183.7,492.15,Single-ply,SBD,M,
Boys,67.13,2,Erichmans Hor,Jefferson,66.95,106.59,74.84,158.76,340.19,Single-ply,SBD,M,
Boys,67.13,3,Kearon Padron,Daingerfield,63.32,102.06,70.31,142.88,315.25,Single-ply,SBD,M,
Boys,74.84,1,Zane Smith #1,Gladewater Sabine,70.76,190.51,163.29,195.04,548.85,Single-ply,SBD,M,
Boys,74.84,2,Trayson Wright,Overton,73.12,215.46,124.74,201.85,542.04,Single-ply,SBD,M,
Boys,74.84,3,Matt Morgan,Gladewater Sabine,73.21,206.38,131.54,188.24,526.17,Single-ply,SBD,M,
Boys,74.84,4,Camden Ward,Gladewater Sabine,70.94,176.9,113.4,188.24,478.54,Single-ply,SBD,M,
Boys,74.84,5,Jamarion Askew,Daingerfield,73.84,90.72,56.7,102.06,249.48,Single-ply,SBD,M,
Boys,82.1,1,Kaden Richard,Gladewater Sabine,82.01,206.38,129.27,197.31,532.97,Single-ply,SBD,M,
Boys,82.1,2,Reed Thornburgh,Gladewater Sabine,81.69,174.63,102.06,176.9,453.59,Single-ply,SBD,M,
Boys,82.1,3,Tristan Peterson,Gladewater Sabine,76.57,165.56,106.59,174.63,446.79,Single-ply,SBD,M,
Boys,82.1,4,Sam Black,Gladewater Sabine,81.65,156.49,88.45,163.29,408.23,Single-ply,SBD,M,
Boys,82.1,5,Bryson Dowgan,Gladewater Sabine,77.84,115.67,65.77,142.88,324.32,Single-ply,SBD,M,
Boys,82.1,6,Jonah Walker,Daingerfield,80.56,79.38,79.38,142.88,301.64,Single-ply,SBD,M,
Boys,89.81,1,Ryan Yeater,Jefferson,87.23,215.46,131.54,210.92,557.92,Single-ply,SBD,M,
Boys,89.81,2,Parker Key,Jefferson,87.45,208.65,136.08,213.19,557.92,Single-ply,SBD,M,
Boys,89.81,3,Landon Moses,Gladewater Sabine,86.09,195.04,142.88,174.63,512.56,Single-ply,SBD,M,
Boys,89.81,4,Austin Stephens,Gladewater Sabine,86.36,188.24,124.74,174.63,487.61,Single-ply,SBD,M,
Boys,89.81,5,Joseph Royce,Gladewater Sabine,83.01,161.03,111.13,151.95,424.11,Single-ply,SBD,M,
Boys,89.81,6,Sonny Jimenez,Gladewater Sabine,89.09,158.76,95.25,167.83,421.84,Single-ply,SBD,M,
Boys,89.81,7,Weston Collard,Daingerfield,83.82,104.33,61.23,136.08,301.64,Single-ply,SBD,M,
Boys,99.79,1,Isaac Hubbard,Gladewater Sabine,99.74,158.76,97.52,158.76,415.04,Single-ply,SBD,M,
Boys,99.79,2,Josh Self,Overton,99.16,129.27,83.91,154.22,367.41,Single-ply,SBD,M,
Boys,99.79,3,Daymion Sikes,Daingerfield,92.8,90.72,61.23,113.4,265.35,Single-ply,SBD,M,
Boys,99.79,DQ,Knox Tomlinson,Jefferson,98.43,226.8,,,,Single-ply,SBD,M,
Boys,99.79,DQ,Taylor Wilson,Gladewater Sabine,92.8,201.85,133.81,,,Single-ply,SBD,M,
Boys,109.77,1,Steven Calico,Gladewater Sabine,108.32,215.46,142.88,226.8,585.13,Single-ply,SBD,M,
Boys,109.77,2,De'Vonta Waites,Jefferson,109.59,231.33,108.86,213.19,553.38,Single-ply,SBD,M,
Boys,109.77,3,Dawson Brooks,Gladewater Sabine,101.24,213.19,124.74,174.63,512.56,Single-ply,SBD,M,
Boys,109.77,4,Isaiah Farmer,Jefferson,104.6,192.78,102.06,192.78,487.61,Single-ply,SBD,M,
Boys,109.77,5,Jonah Brenner,Gladewater Sabine,104.69,122.47,92.99,133.81,349.27,Single-ply,SBD,M,
Boys,109.77,6,Trevon Jones,Daingerfield,105.14,88.45,61.23,151.95,301.64,Single-ply,SBD,M,
Boys,124.74,1,Bryce Clark,Jefferson,121.74,231.33,136.08,231.33,598.74,Single-ply,SBD,M,
Boys,124.74,2,Marlon Hayes,Daingerfield,110.68,170.1,140.61,206.38,517.1,Single-ply,SBD,M,
Boys,124.74,3,Malik Tatum,Daingerfield,113.04,170.1,111.13,208.65,489.88,Single-ply,SBD,M,
Boys,124.74,4,Chris Andrade,Overton,118.12,142.88,77.11,142.88,362.87,Single-ply,SBD,M,
Boys,124.74,5,Nick Wallace,Daingerfield,115.67,124.74,70.31,113.4,308.44,Single-ply,SBD,M,
Boys,139.71,1,Jy'Keelin Frazier,Daingerfield,135.17,204.12,142.88,195.04,542.04,Single-ply,SBD,M,
Boys,139.71,2,Zach Hulschur,Jefferson,135.35,151.95,83.91,161.03,396.89,Single-ply,SBD,M,
